<svg width="41" height="26" fill="none" xmlns="http://www.w3.org/2000/svg">
    <path d="m4.156 22.038-2.411 2.538 2.41-2.538zm-.019-.707L1.6 18.921l2.537 2.41zm.725.69L7.4 24.43l-2.538-2.41zM20.455 5.606l2.489-2.462-2.54-2.567-2.486 2.618 2.537 2.41zm16.085 16.26 2.488-2.46-2.488 2.46zm.707.004 2.462 2.489-2.462-2.489zm.004-.707 2.488-2.461-2.488 2.461zM20.935 4.67l-2.488 2.461 2.488-2.461zm-.52-.12-.76 3.415.968.216.937-.324-1.144-3.308zm-.47.143-2.538-2.41 2.537 2.41zM6.565 19.5a3 3 0 0 1 .109 4.241L1.6 18.921a4 4 0 0 0 .145 5.655L6.566 19.5zm-4.241.108a3 3 0 0 1 4.241-.108l-4.821 5.075A4 4 0 0 0 7.4 24.43l-5.075-4.822zM17.918 3.197 2.325 19.61 7.4 24.431 22.993 8.017l-5.075-4.82zm21.11 16.21L22.944 3.146l-4.977 4.922 16.085 16.26 4.976-4.922zm-4.242-.023a3 3 0 0 1 4.242.023l-4.976 4.923a4 4 0 0 0 5.657.03l-4.923-4.976zm-.023 4.243a3 3 0 0 1 .023-4.243l4.922 4.977a4 4 0 0 0 .031-5.657l-4.976 4.923zM18.447 7.13l16.316 16.495 4.976-4.923L23.424 2.209 18.447 7.13zm3.113.726a3 3 0 0 1-3.113-.726l4.977-4.922a4 4 0 0 0-4.152-.967l2.288 6.615zm.922-.754a3 3 0 0 1-2.828.862l1.524-6.832a4 4 0 0 0-3.771 1.15l5.075 4.82zM6.675 23.742 22.482 7.103l-5.075-4.82L1.6 18.92l5.075 4.821z" fill="#59CCFC"/>
</svg>
