<svg width="41" height="26" fill="none" xmlns="http://www.w3.org/2000/svg">
    <path d="m37.24 3.665-2.41 2.537 2.41-2.537zm.018.707-2.537-2.41 2.537 2.41zm-.725-.689-2.537-2.41 2.537 2.41zM20.94 20.096l-2.488 2.462 2.54 2.567 2.486-2.618-2.538-2.41zM4.855 3.836 2.367 6.297l2.488-2.461zm-.707-.004L1.687 1.344l2.461 2.488zm-.003.707L1.656 7 4.145 4.54zM20.46 21.033l-2.488 2.461 2.488-2.46zm.52.121.76-3.416-.968-.216-.937.325 1.145 3.307zm.471-.144-2.537-2.41 2.537 2.41zM34.83 6.202a3 3 0 0 1-.108-4.24l5.075 4.82a4 4 0 0 0-.145-5.655l-4.822 5.075zm4.242-.108a3 3 0 0 1-4.242.108l4.822-5.075a4 4 0 0 0-5.655.145l5.075 4.822zM23.478 22.507 39.07 6.094l-5.075-4.822-15.593 16.414 5.075 4.821zM2.368 6.297l16.084 16.26 4.977-4.922L7.344 1.375 2.367 6.296zm4.242.023a3 3 0 0 1-4.243-.023l4.977-4.923a4 4 0 0 0-5.657-.03L6.61 6.32zm.023-4.242A3 3 0 0 1 6.61 6.32L1.687 1.344A4 4 0 0 0 1.657 7l4.976-4.922zm16.315 16.494L6.633 2.078 1.656 7l16.316 16.494 4.976-4.922zm-3.113-.726a3 3 0 0 1 3.113.726l-4.976 4.922a4 4 0 0 0 4.152.967l-2.29-6.614zm-.921.754a3 3 0 0 1 2.827-.862l-1.523 6.832a4 4 0 0 0 3.77-1.149L18.915 18.6zM34.72 1.96 18.914 18.6l5.075 4.821L39.796 6.782l-5.075-4.82z" fill="#59CCFC"/>
</svg>
